[
  {
    "request": {
      "method": [
        "POST"
      ],
      "callbackUri": "callBackUri"
    },
    "response": {
      "status": 200,
      "body": {
        "SBCId": "12345"
      },
      "headers": {
        "Content-Type": "application/json",
        "Other-Header": "something"
      }
    },
    "callback": {
      "method": "POST",
      "uri": {
        "requestCallBackName": "callBackUri"
      },
      "delaySeconds": 5,
      "body": {
        "searchType": "Crim",
        "jurisdictionSearched": "Jurisdiction 13!",
        "caseNumber": "13",
        "fileDate": "01-01-2016",
        "offenseDate": "01-01-2015",
        "plea": "Super Guilty",
        "dispositionDate": "02-01-2016",
        "disposition": "Happy",
        "sentence": "The Bastille",
        "subjectIdentifiers": "I don't know",
        "additionalInfo":["some more info"]
      },
      "headers": {
        "Content-Type": "application/json",
        "Other-Header": "something"
      }
    }
  },
  {
    "request": {
      "method": [
        "GET"
      ],
      "callbackUri": "callBackUri"
    },
    "response": {
      "status": 200,
      "body": {
        "SBCId": "54321"
      },
      "headers": {
        "Content-Type": "application/json",
        "Other-Header": "something"
      }
    }

  }
]